{
  "inputs": [
    {
      "label": "Unidad",
      "name": "unit",
      "type": "text",
      "icon": "briefcase"
    },
    {
      "label": "Tipo de departamento",
      "name": "type",
      "type": "text",
      "icon": "bookmark"
    },
    {
      "label": "Descripción",
      "name": "description",
      "type": "text",
      "icon": "list-ul"
    },
    {
      "label": "Precio de venta",
      "name": "salePrice",
      "type": "number",
      "icon": "money"
    },
    {
      "label": "Caracteristicas",
      "name": "characteristics",
      "type": "textArea",
      "icon": "bullseye",
      "class": "textArea"
    }
  ],
  "selects": [{
      "label": "Empresa",
      "name": "companyId",
      "options": []
    },
    {
      "label": "Sucursal",
      "name": "officeId",
      "options": []
    },
    {
      "label": "Proyecto",
      "name": "projectId",
      "options": []
    }
  ]
}
